DOI	Publication_Date	Project
doi:10.1594/PANGAEA.964092	2023-12-12T12:33:11	AIMS3, CDRmare
doi:10.1594/PANGAEA.964096	2023-12-12T12:37:50	AIMS3, CDRmare
doi:10.1594/PANGAEA.964072	2023-12-11T13:54:47	AIMS3, CDRmare
doi:10.1594/PANGAEA.964090	2023-12-12T12:30:50	AIMS3, CDRmare
doi:10.1594/PANGAEA.964095	2023-12-12T12:36:45	AIMS3, CDRmare
doi:10.1594/PANGAEA.964089	2023-12-12T12:11:33	AIMS3, CDRmare
doi:10.1594/PANGAEA.964076	2023-12-11T14:31:38	AIMS3, CDRmare
doi:10.1594/PANGAEA.964078	2023-12-11T15:04:08	AIMS3, CDRmare
doi:10.1594/PANGAEA.964097	2023-12-12T12:38:47	AIMS3, CDRmare
doi:10.1594/PANGAEA.964094	2023-12-12T12:35:41	AIMS3, CDRmare
doi:10.1594/PANGAEA.964093	2023-12-12T12:34:21	AIMS3, CDRmare
doi:10.1594/PANGAEA.964069	2023-12-11T13:19:55	AIMS3, CDRmare
doi:10.1594/PANGAEA.964091	2023-12-12T12:32:06	AIMS3, CDRmare
doi:10.1594/PANGAEA.964083	2023-12-12T07:44:05	AIMS3, CDRmare
doi:10.1594/PANGAEA.964086	2023-12-19T13:33:30	RETAKE, CDRmare
doi:10.1594/PANGAEA.951200	2022-11-22T14:36:29	Test-ArtUp, Ocean-artUp, CDRmare
doi:10.1594/PANGAEA.963781	2023-11-28T13:07:48	Test-ArtUp, AQUACOSM, Ocean-artUp, CDRmare
doi:10.1594/PANGAEA.963428	2023-11-24T12:52:17	Carbostore, RETAKE, AWI_PhyOce, CDRmare
doi:10.1594/PANGAEA.963467	2023-11-28T10:45:11	Test-ArtUp, AQUACOSM, Ocean-artUp, CDRmare
doi:10.1594/PANGAEA.963462	2023-11-28T16:39:30	Test-ArtUp, AQUACOSM, Ocean-artUp, CDRmare
doi:10.1594/PANGAEA.954527	2023-01-18T12:07:50	AIMS3, DAM_Underway, CDRmare
doi:10.1594/PANGAEA.954852	2023-01-25T13:45:36	Test-ArtUp, AQUACOSM, Ocean-artUp, CDRmare
doi:10.1594/PANGAEA.956371	2023-03-13T10:58:01	Test-ArtUp, AQUACOSM, Ocean-artUp, CDRmare
doi:10.1594/PANGAEA.963541	2023-11-29T13:13:28	Test-ArtUp, AQUACOSM, Ocean-artUp, CDRmare
doi:10.1594/PANGAEA.954531	2023-01-18T12:17:10	AIMS3, DAM_Underway, CDRmare
doi:10.1594/PANGAEA.963589	2023-11-29T17:06:01	Test-ArtUp, AQUACOSM, Ocean-artUp, CDRmare
doi:10.1594/PANGAEA.951417	2022-12-01T08:56:26	Test-ArtUp, AQUACOSM, Ocean-artUp, CDRmare
doi:10.1594/PANGAEA.963468	2023-11-29T10:08:47	Test-ArtUp, AQUACOSM, Ocean-artUp, CDRmare
doi:10.1594/PANGAEA.962782	2023-11-28T14:27:36	Test-ArtUp, Ocean-artUp, CDRmare
doi:10.1594/PANGAEA.963590	2023-12-04T10:05:00	Test-ArtUp, AQUACOSM, Ocean-artUp, CDRmare
